{
  "$schema": "http://json.schemastore.org/launchsettings.json",
  "profiles": {
    "Api": {
      "commandName": "Project",
      "launchBrowser": true,
      "launchUrl": "swagger",
      "environmentVariables": {
        "ASPNETCORE_ENVIRONMENT": "Development"
      },
      "applicationUrl": "http://localhost:5000;https://localhost:5001",
      "dotnetRunMessages": "true"
    }
  }
}